%YAML 1.1
%TAG !u! tag:unity3d.com,2011:
--- !u!114 &11400000
MonoBehaviour:
  m_ObjectHideFlags: 0
  m_CorrespondingSourceObject: {fileID: 0}
  m_PrefabInstance: {fileID: 0}
  m_PrefabAsset: {fileID: 0}
  m_GameObject: {fileID: 0}
  m_Enabled: 1
  m_EditorHideFlags: 0
  m_Script: {fileID: 11500000, guid: 3a44b9bcd85bb45dabee665d7eed1f04, type: 3}
  m_Name: Dragonite_Data
  m_EditorClassIdentifier: 
  Name: Dragonite
  Level: 1
  Health: 200
  Mana: 20
  AttackSpeed: 1
  Damage: 20
  CurrentXP: 0
  XpBase: 20
  XpMultiplier: 1.25
  XP: 0
  MaxLevel: 20
  AttackRange: 3
  SkillChancePerc: 0
  AttackVariants: 1
  XPtoGive: 10
  skills: []
  DamageMultiplier: 1.2
  BaseHealth: 200
  HealthMultiplier: 1.1
