%YAML 1.1
%TAG !u! tag:unity3d.com,2011:
--- !u!114 &11400000
MonoBehaviour:
  m_ObjectHideFlags: 0
  m_CorrespondingSourceObject: {fileID: 0}
  m_PrefabInstance: {fileID: 0}
  m_PrefabAsset: {fileID: 0}
  m_GameObject: {fileID: 0}
  m_Enabled: 1
  m_EditorHideFlags: 0
  m_Script: {fileID: 11500000, guid: 2846cdf9f09cb426fb8201fd5d32a83b, type: 3}
  m_Name: Level9
  m_EditorClassIdentifier: 
  enemies:
  - data: {fileID: 11400000, guid: a80fa34ad6b9b411baf6fdd9347d9470, type: 2}
    prefab: {fileID: 6546568670296488992, guid: d5957a67c85f744eb8e8b38dfabcfbbe,
      type: 3}
    amount: 15
    enemyLevel: 7
  - data: {fileID: 11400000, guid: ef904293fc8974707bbea966025126fd, type: 2}
    prefab: {fileID: 2611103151607315001, guid: c924b0f3b46f5460d831f407ed19b71c,
      type: 3}
    amount: 20
    enemyLevel: 10
  - data: {fileID: 11400000, guid: 379461114ffb74dfbaa2abbcaf648bf8, type: 2}
    prefab: {fileID: 6772847785504867421, guid: a610c680c27754628adc4c8d750ee3ac,
      type: 3}
    amount: 5
    enemyLevel: 10
  waveDuration: 20
