%YAML 1.1
%TAG !u! tag:unity3d.com,2011:
--- !u!114 &11400000
MonoBehaviour:
  m_ObjectHideFlags: 0
  m_CorrespondingSourceObject: {fileID: 0}
  m_PrefabInstance: {fileID: 0}
  m_PrefabAsset: {fileID: 0}
  m_GameObject: {fileID: 0}
  m_Enabled: 1
  m_EditorHideFlags: 0
  m_Script: {fileID: 11500000, guid: 2846cdf9f09cb426fb8201fd5d32a83b, type: 3}
  m_Name: Level2
  m_EditorClassIdentifier: 
  enemies:
  - data: {fileID: 11400000, guid: ef904293fc8974707bbea966025126fd, type: 2}
    prefab: {fileID: 2611103151607315001, guid: c924b0f3b46f5460d831f407ed19b71c,
      type: 3}
    amount: 3
    enemyLevel: 2
  waveDuration: 15
